module gitlab.com/daakghar-service-gin

go 1.15

require (
	github.com/alecthomas/template v0.0.0-20190718012654-fb15b899a751
	github.com/dgrijalva/jwt-go v3.2.0+incompatible
	github.com/gin-gonic/gin v1.7.1
	github.com/go-openapi/jsonreference v0.19.6 // indirect
	github.com/go-openapi/spec v0.20.3 // indirect
	github.com/go-openapi/swag v0.19.15 // indirect
	github.com/go-playground/validator/v10 v10.6.1
	github.com/json-iterator/go v1.1.11 // indirect
	github.com/leodido/go-urn v1.2.1 // indirect
	github.com/mailru/easyjson v0.7.7 // indirect
	github.com/onsi/ginkgo v1.16.4
	github.com/onsi/gomega v1.13.0
	github.com/swaggo/files v0.0.0-20190704085106-630677cd5c14
	github.com/swaggo/gin-swagger v1.3.0
	github.com/swaggo/swag v1.7.0
	github.com/ugorji/go v1.2.6 // indirect
	go.mongodb.org/mongo-driver v1.5.3
	golang.org/x/crypto v0.0.0-20210513164829-c07d793c2f9a // indirect
	golang.org/x/net v0.0.0-20210716203947-853a461950ff // indirect
	golang.org/x/sys v0.0.0-20210630005230-0f9fa26af87c // indirect
	golang.org/x/tools v0.1.5 // indirect
)
